{
    "controllers": {
        "@symfony/ux-autocomplete": {
            "autocomplete": {
                "enabled": true,
                "fetch": "eager",
                "autoimport": {
                    "tom-select/dist/css/tom-select.default.css": false,
                    "tom-select/dist/css/tom-select.bootstrap4.css": false,
                    "tom-select/dist/css/tom-select.bootstrap5.css": true
                }
            }
        },
        "@symfony/ux-chartjs": {
            "chart": {
                "enabled": true,
                "fetch": "eager"
            }
        },
        "@symfony/ux-dropzone": {
            "dropzone": {
                "enabled": true,
                "fetch": "eager",
                "autoimport": {
                    "@symfony/ux-dropzone/dist/style.min.css": true
                }
            }
        },
        "@symfony/ux-live-component": {
            "live": {
                "enabled": true,
                "fetch": "eager",
                "autoimport": {
                    "@symfony/ux-live-component/dist/live.min.css": true
                }
            }
        },
        "@symfony/ux-notify": {
            "notify": {
                "enabled": true,
                "fetch": "eager"
            }
        },
        "@symfony/ux-toggle-password": {
            "toggle-password": {
                "enabled": true,
                "fetch": "eager",
                "autoimport": {
                    "@symfony/ux-toggle-password/dist/style.min.css": true
                }
            }
        },
        "@symfony/ux-turbo": {
            "turbo-core": {
                "enabled": true,
                "fetch": "eager"
            },
            "mercure-turbo-stream": {
                "enabled": false,
                "fetch": "eager"
            }
        },
        "@symfony/ux-typed": {
            "typed": {
                "enabled": true,
                "fetch": "eager"
            }
        }
    },
    "entrypoints": []
}
